individual1
…
3) Create a data frame containing the most dangerous vehicle make in each state. The number of persons fatally hit in the vehicle make is used to assess the (non-)safety of a make. Make sure to handle the missing values appropriately. (look up variable MAKE)

#All defaults
danger_car <- fatal_inj %>%
  drop_na(MAKE) %>%
  group_by(STATE, MAKE) %>%
  summarize(count = n()) %>%
  group_by(STATE) %>%
  filter(count==max(count))

## `summarise()` has grouped output by 'STATE'. You can override using the `.groups` argument.

danger_car

## # A tibble: 54 x 3
## # Groups:   STATE [51]
##    STATE  MAKE count
##    <int> <int> <int>
##  1     1    12   138
##  2     2    12     9
##  3     4    20    88
##  4     5    20    88
##  5     6    49   351
##  6     8    12    63
##  7     8    37    63
##  8     9    37    28
##  9    10    37    12
## 10    11    37     5
## #  with 44 more rows
…
It looks like the most accidents happen on Saturdays, followed by Sundays and Fridays. The least amount of accidents happen on Wednesdays, which makes sense because it is in the middle of the week when there usually isnt a lot going on.

#All defaults
acc %>%
  group_by(HOUR) %>%
  count(HOUR)

## # A tibble: 25 x 2
## # Groups:   HOUR [25]
##     HOUR     n
##    <int> <int>
##  1     0  1321
##  2     1  1177
##  3     2  1241
##  4     3   957
##  5     4   813
##  6     5  1065
##  7     6  1282
##  8     7  1162
##  9     8   945
## 10     9   929
## #  with 15 more rows
…
winterdeath <- acc %>%
  filter(MONTH >= 11 | MONTH <= 2) %>%
  select(STATE, FATALS) %>%
  group_by(STATE) %>%
  summarize(winCount = sum(FATALS))

summerdeath

## # A tibble: 51 x 2
##    STATE sumCount
##    <int>    <int>
##  1     1      948
##  2     2       79
##  3     4     1000
##  4     5      493
##  5     6     3602
##  6     8      648
##  7     9      278
##  8    10      119
##  9    11       31
## 10    12     3112
## #  with 41 more rows

winterdeath

## # A tibble: 51 x 2
##    STATE winCount
##    <int>    <int>
##  1     1      286
##  2     2       28
##  3     4      323
##  4     5      147
##  5     6     1171
##  6     8      180
##  7     9       89
##  8    10       39
##  9    11       10
## 10    12     1090
## #  with 41 more rows
…
